{
  "response": {
    "mimeType": "application/json"
  },
  "request": {
    "name": "guide-detail",
    "pipeline": [{
      "source": {
        "guides": null
      }
    }, {
      "unwind": {
        "field": "polls"
      }
    }, {
      "unwind": {
        "field": "steps"
      }
    }, {
      "unwind": {
        "field": "steps.pollIds"
      }
    }, {
      "eval": {
        "guideId": "id",
        "pollId": "polls.id",
        "guideStepId": "steps.id",
        "lastUpdatedTimestamp": "formatTime(`2006-01-02 15:04:05-07:00`, lastUpdatedAt)",
        "pollQuestion": "polls.question",
        "pollType": "polls.attributes.type",
        "poll": "polls",
        "stepPollId": "steps.pollIds",
        "stepsPollIds":"steps.pollIds",
        "pollResponseOptions": "polls.idResponses"
      }
    }, {
    	"filter" : "pollId == steps.pollIds"
    }, {
    	"select": {
    		"guideId": "guideId",
    		"guideName": "name",
    		"lastUpdatedAt": "lastUpdatedAt",
    		"isMultiStep": "isMultiStep",
    		"pollId": "pollId",
    		"pollType": "pollType",
    		"pollQuestion": "pollQuestion",
        "steps":"stepsPollIds",
    		"pollResponseOptions": "pollResponseOptions"
    	}
    }],
    "requestId": "guide-detail"
  }
}
