{
  "response": {
    "mimeType": "application/json"
  },
  "request": {
    "name": "pollEvent-guide-day-summary",
    "pipeline": [{
	      "source": {
	        "pollEvents": {
	        	"guideId": null
	        },
	        "timeSeries": {
	          "period": "dayRange",
	          "first": "now()",
	          "count": 1
	        }
	      }
	    }, {
	      "identified": "visitorId"
	    }, {
	    	"useragent": {
	    		"useragent": "userAgent"
	    	}
	    }, {
	    	"eval": {
          "browser": "useragent.name",
	    		"os": "useragent.os",
	    		"browserTimestamp": "formatTime(`2006-01-02 15:04:05-07:00`, browserTime)"
	    	}
	    }, {
    	"merge": {
    		"fields": ["guideId", "pollId"],
    		"pipeline":  [{"source": {
		        "guides": {
		        	"guideId": null
		        }
		      }
		    }, {
		      "unwind": {
		        "field": "polls"
		      }
		    }, {
		      "unwind": {
		        "field": "steps"
		      }
		    }, {
		      "unwind": {
		        "field": "steps.pollIds"
		      }
		    },  {
		      "eval": {
		        "guideId": "id",
		        "pollId": "polls.id",
		        "guideStepId": "steps.id",
		        "stepPollId": "steps.pollIds",
		        "pollQuestion": "polls.question",
		        "pollType": "polls.attributes.type",
		        "poll": "polls",
		        "stepsPollIds":"steps.pollIds"
		      }
		    }, {
		    	"filter" : "pollId == steps.pollIds"
		    }, {
		    	"select": {
		    		"guideId": "guideId",
		    		"guideName": "name",
		    		"lastUpdatedAt": "lastUpdatedAt",
		    		"isMultiStep": "isMultiStep",
		    		"pollId": "pollId",
		    		"pollType": "pollType",
		    		"pollQuestion": "pollQuestion",
		        	"stepsPollIds":"stepsPollIds"
		    	}
		    }]}
    }, {
    	"eval": {
    		"pollResponsePickListId": "if(pollType==\"PickList\", pollResponse, null)",
    		"pollResponseNumberScale": "if(pollType==\"NumberScale\", pollResponse, null)",
    		"pollResponseFreeForm": "if(pollType!=\"NumberScale\", if(pollType!=\"PickList\", pollResponse, null), null)"
    	}
	}, {
    	"select": {
    		"accountId": "accountId",
        "browser": "browser",
    		"browserTimestamp": "browserTimestamp",
    		"guideId": "guideId",
    		"guideName": "guideName",
    		"os": "os",
    		"pollId": "pollId",
    		"pollQuestion": "pollQuestion",
    		"pollType": "pollType",
		    "pollResponseOptions": "pollResponseOptions",
    		"pollResponseFreeForm": "pollResponseFreeForm",
    		"pollResponseNumberScale": "pollResponseNumberScale",
    		"pollResponsePickListId": "pollResponsePickListId",
    		"stepsPollIds": "stepsPollIds",
    		"visitorId": "visitorId"
    	}
    }],
    "requestId": "pollEvent-guide-day-summary"
  }
}
