{
  "response": {
    "mimeType": "application/json"
  },
  "request": {
    "name": "trackTypes-detail",
    "pipeline": [{
      "source": {
        "trackTypes": null
      }
    }, {
      "eval": {
        "trackTypeId": "id",
        "lastUpdatedTimestamp": "formatTime(`2006-01-02 15:04:05-07:00`, lastUpdatedAt)"
      }
    }, {
    	"select": {
    		"eventPropertyNameList": "eventPropertyNameList",
    		"group": "group.name",
    		"kind": "kind",
    		"lastUpdatedTimestamp": "lastUpdatedTimestamp",
    		"trackTypeId": "trackTypeId",
    		"trackTypeName": "trackTypeName",
    		"trackTypeRules": "trackTypeRules"
    	}
    }],
    "requestId": "trackTypes-detail"
  }
}
