{
  "response": {
    "mimeType": "application/json"
  },
  "request": {
    "name": "trackEvent-data",
    "pipeline": [{
      "source": {
        "trackEvents": {
        	"blacklist": "apply"
        },
        "timeSeries": {
          "period": "dayRange",
          "first": "now()",
          "count": 1
        }
      }
    }, {
	  	"filter": "trackTypeId == \"zlf5QYLH2Qg9ILfq1goezFdHerA\" || trackTypeId == \"S7vKsq6nZ8Urgz62my9bTLcDAYQ\" || trackTypeId == \"C7Bfp1-ylqmi7Gahd4XaiWuNBTM\" || trackTypeId == \"er16LqGxClAKf4I0P9i2fBGozro\""
  	}, {
    	"group": {
    		"group": ["day", "accountId", "visitorId", "trackTypeId", "userAgent", "properties"],
    		"fields": [{
	          "numEvents": {
	            "sum": "numEvents"
	          }
	        }, {
	        	"numMinutes": {
	        		"sum": "numMinutes"
	        	}
	        }]
    	}
    }, {
      "useragent": {
        "userAgent": "userAgent"
      }
    }, {
      "eval": {
      	"date": "formatTime(`2006-01-02`, day)"
      }
    }, {
      "select": {
        "accountId": "accountId",
        "browser": "userAgent.name",
        "date": "date",
        "properties": "properties",
        "trackTypeId": "trackTypeId",
        "visitorId": "visitorId",
        "numEvents": "numEvents",
        "numMinutes": "numMinutes"
      }
    }],
    "requestId": "trackEvent-data"
  }
}
